{
  "images" : [
    {
      "filename" : "02n.png",
      "scale" : "1x",
      "idiom" : "universal"
    },
    {
      "filename" : "02n@2x.png",
      "idiom" : "universal",
      "scale" : "2x"
    },
    {
      "idiom" : "universal",
      "filename" : "02n@3x.png",
      "scale" : "3x"
    }
  ],
  "info" : {
    "version" : 1,
    "author" : "xcode"
  }
}